<svg width="64" height="43" viewBox="0 0 64 43" fill="none" xmlns="http://www.w3.org/2000/svg">
<path fill-rule="evenodd" clip-rule="evenodd" d="M61.8584 8.46667L63.725 23.5167L63.9917 25.6667C63.9969 25.7108 64 25.7554 64 25.8V35.475C64 36.0687 63.5224 36.55 62.9333 36.55H59.7334C59.7329 38.1389 59.1475 39.6711 58.0907 40.85H64V43H0.000860354V40.85H4.8435C3.78675 39.6711 3.20134 38.1389 3.20082 36.55H1.06751C0.478458 36.55 0.000860354 36.0687 0.000860354 35.475V29.025C0.000860354 28.4313 0.478458 27.95 1.06751 27.95H6.12578C1.14824 24.7292 -1.12621 18.5863 0.541478 12.8664C2.20916 7.14707 7.41899 3.22028 13.334 3.225H13.8673V1.075C13.8673 0.481335 14.3449 0 14.934 0H24.5339C25.1229 0 25.6005 0.481335 25.6005 1.075V3.225H26.1338C32.0489 3.22028 37.2587 7.14707 38.9264 12.8664C40.5941 18.5863 38.3196 24.7292 33.3421 27.95H40.5336V8.6C40.5336 8.00634 41.0112 7.525 41.6003 7.525H60.8C61.3381 7.525 61.7917 7.92865 61.8584 8.46667ZM59.7334 27.95V30.1H61.8667V27.95H59.7334ZM61.4584 22.575H46.9336V13.975H60.3917L61.4584 22.575ZM27.1578 40.85H48.5762C47.5195 39.6711 46.9341 38.1389 46.9336 36.55H28.8005C28.8 38.1389 28.2145 39.6711 27.1578 40.85ZM18.1339 36.55C18.1339 34.1753 20.0443 32.25 22.4006 32.25C24.7568 32.25 26.6672 34.1753 26.6672 36.55C26.6672 38.9247 24.7568 40.85 22.4006 40.85C20.0443 40.85 18.1339 38.9247 18.1339 36.55ZM26.1338 27.95C32.3166 27.9427 37.3264 22.8936 37.3337 16.6625C37.3264 10.4314 32.3166 5.38235 26.1338 5.375H23.4672V27.95H26.1338ZM21.3339 24.725H18.1339V22.575H21.3339V24.725ZM18.1339 20.425H21.3339V18.275H18.1339V20.425ZM21.3339 16.125H18.1339V13.975H21.3339V16.125ZM18.1339 11.825H21.3339V9.675H18.1339V11.825ZM21.3339 7.525H18.1339V5.375H21.3339V7.525ZM21.3339 26.875H18.1339V27.95H21.3339V26.875ZM16.0006 2.15H23.4672V3.225H16.0006V2.15ZM13.334 5.375C7.15128 5.38235 2.14146 10.4314 2.13416 16.6625C2.14146 22.8936 7.15128 27.9427 13.334 27.95H16.0006V5.375H13.334ZM2.13416 34.4V30.1H9.42826C9.37282 30.1015 9.31729 30.1038 9.26167 30.1068C6.6789 30.2464 4.43361 31.9408 3.57425 34.4H2.13416ZM9.42826 30.1H9.78323C9.6654 30.0967 9.54704 30.0967 9.42826 30.1ZM22.0661 30.1C19.7421 30.2195 17.6427 31.6099 16.6241 33.758C15.5085 36.1122 15.9105 38.9121 17.6433 40.85H14.358C16.0876 38.9115 16.4881 36.1138 15.3725 33.7617C14.3324 31.5687 12.1654 30.1665 9.78323 30.1H22.0661ZM22.0661 30.1H22.7187C22.4997 30.0888 22.2819 30.0889 22.0661 30.1ZM22.7187 30.1L22.7386 30.101C25.3234 30.2417 27.5692 31.9387 28.427 34.4H40.5336V30.1H22.7187ZM9.60073 32.25C7.24451 32.25 5.33412 34.1753 5.33412 36.55C5.33412 38.9247 7.24451 40.85 9.60073 40.85C11.9569 40.85 13.8673 38.9247 13.8673 36.55C13.8673 34.1753 11.9569 32.25 9.60073 32.25ZM49.0669 36.55C49.0669 34.1753 50.9773 32.25 53.3335 32.25C55.6897 32.25 57.6001 34.1753 57.6001 36.55C57.6001 38.9247 55.6897 40.85 53.3335 40.85C50.9773 40.85 49.0669 38.9247 49.0669 36.55ZM9.60073 34.4C8.42262 34.4 7.46743 35.3627 7.46743 36.55C7.46743 37.7373 8.42262 38.7 9.60073 38.7C10.7788 38.7 11.734 37.7373 11.734 36.55C11.734 35.3627 10.7788 34.4 9.60073 34.4ZM22.4006 34.4C21.2224 34.4 20.2673 35.3627 20.2673 36.55C20.2673 37.7373 21.2224 38.7 22.4006 38.7C23.5787 38.7 24.5339 37.7373 24.5339 36.55C24.5339 35.3627 23.5787 34.4 22.4006 34.4ZM51.2002 36.55C51.2002 35.3627 52.1554 34.4 53.3335 34.4C54.5116 34.4 55.4668 35.3627 55.4668 36.55C55.4668 37.7373 54.5116 38.7 53.3335 38.7C52.1554 38.7 51.2002 37.7373 51.2002 36.55Z" fill="#333333"/>
</svg>
